{
  "version": "v4",
  "repo": "borisyankov/DefinitelyTyped",
  "ref": "master",
  "path": "typings",
  "bundle": "typings/tsd.d.ts",
  "installed": {
    "node/node.d.ts": {
      "commit": "708609e0764daeb5eb64104af7aca50c520c4e6e"
    },
    "express/express.d.ts": {
      "commit": "708609e0764daeb5eb64104af7aca50c520c4e6e"
    },
    "mime/mime.d.ts": {
      "commit": "708609e0764daeb5eb64104af7aca50c520c4e6e"
    },
    "serve-static/serve-static.d.ts": {
      "commit": "708609e0764daeb5eb64104af7aca50c520c4e6e"
    },
    "socket.io/socket.io.d.ts": {
      "commit": "708609e0764daeb5eb64104af7aca50c520c4e6e"
    },
    "kafka-node/kafka-node.d.ts": {
      "commit": "708609e0764daeb5eb64104af7aca50c520c4e6e"
    },
    "morgan/morgan.d.ts": {
      "commit": "708609e0764daeb5eb64104af7aca50c520c4e6e"
    },
    "cors/cors.d.ts": {
      "commit": "708609e0764daeb5eb64104af7aca50c520c4e6e"
    },
    "body-parser/body-parser.d.ts": {
      "commit": "708609e0764daeb5eb64104af7aca50c520c4e6e"
    },
    "serve-favicon/serve-favicon.d.ts": {
      "commit": "708609e0764daeb5eb64104af7aca50c520c4e6e"
    },
    "compression/compression.d.ts": {
      "commit": "708609e0764daeb5eb64104af7aca50c520c4e6e"
    },
    "angularjs/angular.d.ts": {
      "commit": "c2c22c3b953fe9730d4802022d5e0d18d083909e"
    },
    "jquery/jquery.d.ts": {
      "commit": "c2c22c3b953fe9730d4802022d5e0d18d083909e"
    },
    "lodash/lodash.d.ts": {
      "commit": "c2c22c3b953fe9730d4802022d5e0d18d083909e"
    }
  }
}
